module taskL0

go 1.21

require (
	github.com/joho/godotenv v1.5.1
	github.com/labstack/echo/v4 v4.11.3
	github.com/nats-io/stan.go v0.10.4
	gorm.io/driver/postgres v1.5.4
	gorm.io/gorm v1.25.5
)

require (
	github.com/gogo/protobuf v1.3.2 // indirect
	github.com/jackc/pgpassfile v1.0.0 // indirect
	github.com/jackc/pgservicefile v0.0.0-20221227161230-091c0ba34f0a // indirect
	github.com/jackc/pgx/v5 v5.4.3 // indirect
	github.com/jinzhu/inflection v1.0.0 // indirect
	github.com/jinzhu/now v1.1.5 // indirect
	github.com/klauspost/compress v1.17.3 // indirect
	github.com/labstack/gommon v0.4.0 // indirect
	github.com/mattn/go-colorable v0.1.13 // indirect
	github.com/mattn/go-isatty v0.0.20 // indirect
	github.com/nats-io/nats-server/v2 v2.10.6 // indirect
	github.com/nats-io/nats-streaming-server v0.25.6 // indirect
	github.com/nats-io/nats.go v1.31.0 // indirect
	github.com/nats-io/nkeys v0.4.6 // indirect
	github.com/nats-io/nuid v1.0.1 // indirect
	github.com/valyala/bytebufferpool v1.0.0 // indirect
	github.com/valyala/fasttemplate v1.2.2 // indirect
	golang.org/x/crypto v0.15.0 // indirect
	golang.org/x/net v0.17.0 // indirect
	golang.org/x/sys v0.14.0 // indirect
	golang.org/x/text v0.14.0 // indirect
)
